5.000000000000000000e+00
3.000000000000000000e+01
2.100000000000000000e+01
3.300000000000000000e+01
1.300000000000000000e+01
9.000000000000000000e+00
1.000000000000000000e+00
0.000000000000000000e+00
0.000000000000000000e+00
0.000000000000000000e+00
0.000000000000000000e+00
0.000000000000000000e+00
0.000000000000000000e+00
0.000000000000000000e+00
0.000000000000000000e+00
0.000000000000000000e+00
0.000000000000000000e+00
0.000000000000000000e+00
0.000000000000000000e+00
0.000000000000000000e+00
0.000000000000000000e+00
0.000000000000000000e+00
0.000000000000000000e+00
0.000000000000000000e+00
0.000000000000000000e+00
0.000000000000000000e+00
5.000000000000000000e+00
1.900000000000000000e+01
5.200000000000000000e+01
5.200000000000000000e+01
8.500000000000000000e+01
9.600000000000000000e+01
1.150000000000000000e+02
1.060000000000000000e+02
9.600000000000000000e+01
8.300000000000000000e+01
1.010000000000000000e+02
1.200000000000000000e+02
1.080000000000000000e+02
1.170000000000000000e+02
1.040000000000000000e+02
8.000000000000000000e+01
8.200000000000000000e+01
9.300000000000000000e+01
7.700000000000000000e+01
8.600000000000000000e+01
1.020000000000000000e+02
9.300000000000000000e+01
1.000000000000000000e+02
1.070000000000000000e+02
8.900000000000000000e+01
1.060000000000000000e+02
