5.000000000000000000e+00
3.800000000000000000e+01
3.800000000000000000e+01
3.900000000000000000e+01
2.500000000000000000e+01
1.200000000000000000e+01
2.000000000000000000e+00
0.000000000000000000e+00
0.000000000000000000e+00
0.000000000000000000e+00
0.000000000000000000e+00
0.000000000000000000e+00
0.000000000000000000e+00
0.000000000000000000e+00
0.000000000000000000e+00
0.000000000000000000e+00
0.000000000000000000e+00
0.000000000000000000e+00
0.000000000000000000e+00
0.000000000000000000e+00
0.000000000000000000e+00
0.000000000000000000e+00
0.000000000000000000e+00
0.000000000000000000e+00
0.000000000000000000e+00
0.000000000000000000e+00
4.000000000000000000e+00
2.000000000000000000e+01
4.400000000000000000e+01
6.400000000000000000e+01
7.100000000000000000e+01
7.800000000000000000e+01
8.900000000000000000e+01
1.060000000000000000e+02
7.800000000000000000e+01
1.030000000000000000e+02
9.000000000000000000e+01
1.140000000000000000e+02
1.150000000000000000e+02
1.090000000000000000e+02
1.140000000000000000e+02
1.150000000000000000e+02
9.600000000000000000e+01
1.050000000000000000e+02
9.600000000000000000e+01
1.050000000000000000e+02
1.150000000000000000e+02
1.110000000000000000e+02
9.200000000000000000e+01
1.030000000000000000e+02
8.900000000000000000e+01
1.040000000000000000e+02
