5.000000000000000000e+00
7.000000000000000000e+00
3.000000000000000000e+00
0.000000000000000000e+00
0.000000000000000000e+00
0.000000000000000000e+00
0.000000000000000000e+00
0.000000000000000000e+00
0.000000000000000000e+00
0.000000000000000000e+00
0.000000000000000000e+00
0.000000000000000000e+00
0.000000000000000000e+00
0.000000000000000000e+00
0.000000000000000000e+00
0.000000000000000000e+00
0.000000000000000000e+00
0.000000000000000000e+00
0.000000000000000000e+00
0.000000000000000000e+00
0.000000000000000000e+00
0.000000000000000000e+00
0.000000000000000000e+00
0.000000000000000000e+00
0.000000000000000000e+00
0.000000000000000000e+00
5.000000000000000000e+00
4.100000000000000000e+01
8.600000000000000000e+01
9.500000000000000000e+01
1.050000000000000000e+02
1.130000000000000000e+02
9.600000000000000000e+01
1.010000000000000000e+02
9.400000000000000000e+01
9.700000000000000000e+01
1.040000000000000000e+02
1.010000000000000000e+02
1.020000000000000000e+02
1.010000000000000000e+02
9.000000000000000000e+01
9.800000000000000000e+01
9.200000000000000000e+01
1.050000000000000000e+02
1.000000000000000000e+02
1.020000000000000000e+02
1.010000000000000000e+02
9.600000000000000000e+01
9.200000000000000000e+01
9.200000000000000000e+01
1.130000000000000000e+02
9.000000000000000000e+01
