5.000000000000000000e+00
1.800000000000000000e+01
1.500000000000000000e+01
0.000000000000000000e+00
0.000000000000000000e+00
0.000000000000000000e+00
0.000000000000000000e+00
0.000000000000000000e+00
0.000000000000000000e+00
0.000000000000000000e+00
0.000000000000000000e+00
0.000000000000000000e+00
0.000000000000000000e+00
0.000000000000000000e+00
0.000000000000000000e+00
0.000000000000000000e+00
0.000000000000000000e+00
0.000000000000000000e+00
0.000000000000000000e+00
0.000000000000000000e+00
0.000000000000000000e+00
0.000000000000000000e+00
0.000000000000000000e+00
0.000000000000000000e+00
0.000000000000000000e+00
0.000000000000000000e+00
6.000000000000000000e+00
5.800000000000000000e+01
7.700000000000000000e+01
8.800000000000000000e+01
1.220000000000000000e+02
1.080000000000000000e+02
1.030000000000000000e+02
9.300000000000000000e+01
9.800000000000000000e+01
9.800000000000000000e+01
8.300000000000000000e+01
9.600000000000000000e+01
1.000000000000000000e+02
1.060000000000000000e+02
1.100000000000000000e+02
1.060000000000000000e+02
1.070000000000000000e+02
9.300000000000000000e+01
1.110000000000000000e+02
9.800000000000000000e+01
8.900000000000000000e+01
1.120000000000000000e+02
1.020000000000000000e+02
1.130000000000000000e+02
9.800000000000000000e+01
9.300000000000000000e+01
