5.000000000000000000e+00
2.100000000000000000e+01
2.000000000000000000e+01
2.500000000000000000e+01
1.500000000000000000e+01
0.000000000000000000e+00
0.000000000000000000e+00
0.000000000000000000e+00
0.000000000000000000e+00
0.000000000000000000e+00
0.000000000000000000e+00
0.000000000000000000e+00
0.000000000000000000e+00
0.000000000000000000e+00
0.000000000000000000e+00
0.000000000000000000e+00
0.000000000000000000e+00
0.000000000000000000e+00
0.000000000000000000e+00
0.000000000000000000e+00
0.000000000000000000e+00
0.000000000000000000e+00
0.000000000000000000e+00
0.000000000000000000e+00
0.000000000000000000e+00
0.000000000000000000e+00
5.000000000000000000e+00
4.000000000000000000e+01
6.100000000000000000e+01
7.900000000000000000e+01
8.000000000000000000e+01
8.700000000000000000e+01
9.400000000000000000e+01
1.110000000000000000e+02
1.080000000000000000e+02
9.900000000000000000e+01
9.800000000000000000e+01
9.100000000000000000e+01
9.500000000000000000e+01
1.010000000000000000e+02
1.040000000000000000e+02
9.000000000000000000e+01
1.090000000000000000e+02
1.120000000000000000e+02
1.030000000000000000e+02
1.120000000000000000e+02
8.500000000000000000e+01
9.400000000000000000e+01
9.600000000000000000e+01
9.500000000000000000e+01
8.500000000000000000e+01
9.600000000000000000e+01
