5.000000000000000000e+00
2.300000000000000000e+01
1.900000000000000000e+01
6.000000000000000000e+00
0.000000000000000000e+00
0.000000000000000000e+00
0.000000000000000000e+00
0.000000000000000000e+00
0.000000000000000000e+00
0.000000000000000000e+00
0.000000000000000000e+00
0.000000000000000000e+00
0.000000000000000000e+00
0.000000000000000000e+00
0.000000000000000000e+00
0.000000000000000000e+00
0.000000000000000000e+00
0.000000000000000000e+00
0.000000000000000000e+00
0.000000000000000000e+00
0.000000000000000000e+00
0.000000000000000000e+00
0.000000000000000000e+00
0.000000000000000000e+00
0.000000000000000000e+00
0.000000000000000000e+00
5.000000000000000000e+00
4.100000000000000000e+01
6.200000000000000000e+01
8.200000000000000000e+01
1.050000000000000000e+02
1.050000000000000000e+02
9.100000000000000000e+01
9.100000000000000000e+01
8.800000000000000000e+01
8.100000000000000000e+01
8.000000000000000000e+01
8.800000000000000000e+01
1.040000000000000000e+02
1.000000000000000000e+02
9.700000000000000000e+01
1.190000000000000000e+02
1.180000000000000000e+02
1.060000000000000000e+02
8.800000000000000000e+01
9.200000000000000000e+01
1.030000000000000000e+02
9.300000000000000000e+01
1.050000000000000000e+02
1.100000000000000000e+02
1.050000000000000000e+02
1.070000000000000000e+02
