6.000000000000000000e+00
2.200000000000000000e+01
2.100000000000000000e+01
1.600000000000000000e+01
1.000000000000000000e+01
5.000000000000000000e+00
4.000000000000000000e+00
0.000000000000000000e+00
0.000000000000000000e+00
0.000000000000000000e+00
0.000000000000000000e+00
0.000000000000000000e+00
0.000000000000000000e+00
0.000000000000000000e+00
0.000000000000000000e+00
0.000000000000000000e+00
0.000000000000000000e+00
0.000000000000000000e+00
0.000000000000000000e+00
0.000000000000000000e+00
0.000000000000000000e+00
0.000000000000000000e+00
0.000000000000000000e+00
0.000000000000000000e+00
0.000000000000000000e+00
0.000000000000000000e+00
5.000000000000000000e+00
4.500000000000000000e+01
7.500000000000000000e+01
8.900000000000000000e+01
8.300000000000000000e+01
9.300000000000000000e+01
1.040000000000000000e+02
8.500000000000000000e+01
9.900000000000000000e+01
1.000000000000000000e+02
1.040000000000000000e+02
8.500000000000000000e+01
1.140000000000000000e+02
9.600000000000000000e+01
1.010000000000000000e+02
9.900000000000000000e+01
9.300000000000000000e+01
1.240000000000000000e+02
1.060000000000000000e+02
1.040000000000000000e+02
1.220000000000000000e+02
1.150000000000000000e+02
1.070000000000000000e+02
1.040000000000000000e+02
8.900000000000000000e+01
1.040000000000000000e+02
