5.000000000000000000e+00
2.400000000000000000e+01
1.600000000000000000e+01
1.300000000000000000e+01
1.600000000000000000e+01
1.800000000000000000e+01
3.000000000000000000e+00
3.000000000000000000e+00
1.000000000000000000e+00
0.000000000000000000e+00
0.000000000000000000e+00
0.000000000000000000e+00
0.000000000000000000e+00
0.000000000000000000e+00
0.000000000000000000e+00
0.000000000000000000e+00
0.000000000000000000e+00
0.000000000000000000e+00
0.000000000000000000e+00
0.000000000000000000e+00
0.000000000000000000e+00
0.000000000000000000e+00
0.000000000000000000e+00
0.000000000000000000e+00
0.000000000000000000e+00
0.000000000000000000e+00
5.000000000000000000e+00
4.600000000000000000e+01
7.200000000000000000e+01
7.700000000000000000e+01
8.600000000000000000e+01
8.200000000000000000e+01
8.900000000000000000e+01
8.700000000000000000e+01
8.700000000000000000e+01
7.900000000000000000e+01
1.050000000000000000e+02
1.170000000000000000e+02
1.150000000000000000e+02
9.500000000000000000e+01
9.100000000000000000e+01
9.500000000000000000e+01
1.110000000000000000e+02
9.600000000000000000e+01
9.400000000000000000e+01
9.000000000000000000e+01
9.700000000000000000e+01
1.150000000000000000e+02
1.030000000000000000e+02
1.050000000000000000e+02
9.500000000000000000e+01
9.000000000000000000e+01
