6.000000000000000000e+00
5.200000000000000000e+01
6.900000000000000000e+01
6.400000000000000000e+01
4.400000000000000000e+01
3.500000000000000000e+01
2.800000000000000000e+01
7.000000000000000000e+00
4.000000000000000000e+00
0.000000000000000000e+00
0.000000000000000000e+00
0.000000000000000000e+00
0.000000000000000000e+00
0.000000000000000000e+00
0.000000000000000000e+00
0.000000000000000000e+00
0.000000000000000000e+00
0.000000000000000000e+00
0.000000000000000000e+00
0.000000000000000000e+00
0.000000000000000000e+00
0.000000000000000000e+00
0.000000000000000000e+00
0.000000000000000000e+00
0.000000000000000000e+00
0.000000000000000000e+00
5.000000000000000000e+00
9.000000000000000000e+00
2.600000000000000000e+01
4.000000000000000000e+01
5.500000000000000000e+01
6.900000000000000000e+01
7.500000000000000000e+01
8.400000000000000000e+01
9.600000000000000000e+01
9.800000000000000000e+01
9.000000000000000000e+01
9.400000000000000000e+01
9.000000000000000000e+01
9.600000000000000000e+01
9.500000000000000000e+01
1.020000000000000000e+02
1.020000000000000000e+02
9.800000000000000000e+01
1.100000000000000000e+02
1.020000000000000000e+02
1.030000000000000000e+02
1.020000000000000000e+02
1.220000000000000000e+02
1.010000000000000000e+02
1.050000000000000000e+02
1.110000000000000000e+02
