6.000000000000000000e+00
3.600000000000000000e+01
4.100000000000000000e+01
2.300000000000000000e+01
7.000000000000000000e+00
0.000000000000000000e+00
0.000000000000000000e+00
0.000000000000000000e+00
0.000000000000000000e+00
0.000000000000000000e+00
0.000000000000000000e+00
0.000000000000000000e+00
0.000000000000000000e+00
0.000000000000000000e+00
0.000000000000000000e+00
0.000000000000000000e+00
0.000000000000000000e+00
0.000000000000000000e+00
0.000000000000000000e+00
0.000000000000000000e+00
0.000000000000000000e+00
0.000000000000000000e+00
0.000000000000000000e+00
0.000000000000000000e+00
0.000000000000000000e+00
0.000000000000000000e+00
5.000000000000000000e+00
2.200000000000000000e+01
3.300000000000000000e+01
7.000000000000000000e+01
9.000000000000000000e+01
9.200000000000000000e+01
1.030000000000000000e+02
9.200000000000000000e+01
9.400000000000000000e+01
1.040000000000000000e+02
1.070000000000000000e+02
1.090000000000000000e+02
1.200000000000000000e+02
8.800000000000000000e+01
9.400000000000000000e+01
1.000000000000000000e+02
1.060000000000000000e+02
1.160000000000000000e+02
1.060000000000000000e+02
9.900000000000000000e+01
9.100000000000000000e+01
7.800000000000000000e+01
1.080000000000000000e+02
1.140000000000000000e+02
1.000000000000000000e+02
1.070000000000000000e+02
