5.000000000000000000e+00
2.100000000000000000e+01
2.200000000000000000e+01
2.400000000000000000e+01
1.600000000000000000e+01
2.300000000000000000e+01
1.000000000000000000e+01
0.000000000000000000e+00
0.000000000000000000e+00
0.000000000000000000e+00
0.000000000000000000e+00
0.000000000000000000e+00
0.000000000000000000e+00
0.000000000000000000e+00
0.000000000000000000e+00
0.000000000000000000e+00
0.000000000000000000e+00
0.000000000000000000e+00
0.000000000000000000e+00
0.000000000000000000e+00
0.000000000000000000e+00
0.000000000000000000e+00
0.000000000000000000e+00
0.000000000000000000e+00
0.000000000000000000e+00
0.000000000000000000e+00
5.000000000000000000e+00
3.600000000000000000e+01
8.300000000000000000e+01
6.400000000000000000e+01
5.800000000000000000e+01
7.800000000000000000e+01
9.700000000000000000e+01
1.040000000000000000e+02
8.800000000000000000e+01
8.700000000000000000e+01
9.700000000000000000e+01
1.100000000000000000e+02
1.110000000000000000e+02
1.120000000000000000e+02
9.600000000000000000e+01
1.020000000000000000e+02
9.400000000000000000e+01
9.800000000000000000e+01
9.700000000000000000e+01
1.060000000000000000e+02
9.900000000000000000e+01
9.500000000000000000e+01
8.700000000000000000e+01
1.030000000000000000e+02
9.300000000000000000e+01
8.800000000000000000e+01
