5.000000000000000000e+00
7.100000000000000000e+01
8.700000000000000000e+01
8.900000000000000000e+01
6.600000000000000000e+01
7.900000000000000000e+01
8.200000000000000000e+01
8.300000000000000000e+01
9.300000000000000000e+01
9.600000000000000000e+01
9.000000000000000000e+01
7.700000000000000000e+01
8.600000000000000000e+01
7.100000000000000000e+01
7.500000000000000000e+01
8.500000000000000000e+01
7.200000000000000000e+01
8.300000000000000000e+01
8.400000000000000000e+01
7.600000000000000000e+01
8.600000000000000000e+01
6.300000000000000000e+01
7.900000000000000000e+01
7.800000000000000000e+01
8.500000000000000000e+01
9.000000000000000000e+01
5.000000000000000000e+00
4.800000000000000000e+01
8.400000000000000000e+01
1.170000000000000000e+02
1.100000000000000000e+02
1.320000000000000000e+02
1.150000000000000000e+02
1.250000000000000000e+02
1.170000000000000000e+02
1.070000000000000000e+02
1.100000000000000000e+02
1.090000000000000000e+02
1.190000000000000000e+02
1.160000000000000000e+02
1.140000000000000000e+02
1.160000000000000000e+02
1.060000000000000000e+02
1.140000000000000000e+02
1.190000000000000000e+02
1.220000000000000000e+02
1.250000000000000000e+02
1.240000000000000000e+02
1.300000000000000000e+02
1.390000000000000000e+02
1.150000000000000000e+02
1.070000000000000000e+02
