5.000000000000000000e+00
2.400000000000000000e+01
2.700000000000000000e+01
1.200000000000000000e+01
2.100000000000000000e+01
8.000000000000000000e+00
0.000000000000000000e+00
0.000000000000000000e+00
0.000000000000000000e+00
0.000000000000000000e+00
0.000000000000000000e+00
0.000000000000000000e+00
0.000000000000000000e+00
0.000000000000000000e+00
0.000000000000000000e+00
0.000000000000000000e+00
0.000000000000000000e+00
0.000000000000000000e+00
0.000000000000000000e+00
0.000000000000000000e+00
0.000000000000000000e+00
0.000000000000000000e+00
0.000000000000000000e+00
0.000000000000000000e+00
0.000000000000000000e+00
0.000000000000000000e+00
5.000000000000000000e+00
2.400000000000000000e+01
5.200000000000000000e+01
8.300000000000000000e+01
9.300000000000000000e+01
9.000000000000000000e+01
9.000000000000000000e+01
8.600000000000000000e+01
1.040000000000000000e+02
1.050000000000000000e+02
8.400000000000000000e+01
8.800000000000000000e+01
9.700000000000000000e+01
8.300000000000000000e+01
1.040000000000000000e+02
9.600000000000000000e+01
9.800000000000000000e+01
9.600000000000000000e+01
9.800000000000000000e+01
1.030000000000000000e+02
1.130000000000000000e+02
1.060000000000000000e+02
1.010000000000000000e+02
1.110000000000000000e+02
9.900000000000000000e+01
1.190000000000000000e+02
