5.000000000000000000e+00
3.800000000000000000e+01
4.900000000000000000e+01
3.300000000000000000e+01
8.000000000000000000e+00
4.000000000000000000e+00
1.000000000000000000e+00
0.000000000000000000e+00
0.000000000000000000e+00
0.000000000000000000e+00
0.000000000000000000e+00
0.000000000000000000e+00
0.000000000000000000e+00
0.000000000000000000e+00
0.000000000000000000e+00
0.000000000000000000e+00
0.000000000000000000e+00
0.000000000000000000e+00
0.000000000000000000e+00
0.000000000000000000e+00
0.000000000000000000e+00
0.000000000000000000e+00
0.000000000000000000e+00
0.000000000000000000e+00
0.000000000000000000e+00
0.000000000000000000e+00
5.000000000000000000e+00
2.300000000000000000e+01
5.700000000000000000e+01
7.400000000000000000e+01
8.700000000000000000e+01
1.000000000000000000e+02
1.170000000000000000e+02
9.000000000000000000e+01
9.600000000000000000e+01
1.090000000000000000e+02
1.050000000000000000e+02
1.020000000000000000e+02
1.030000000000000000e+02
1.050000000000000000e+02
1.100000000000000000e+02
1.120000000000000000e+02
1.090000000000000000e+02
1.130000000000000000e+02
9.400000000000000000e+01
1.010000000000000000e+02
1.010000000000000000e+02
1.150000000000000000e+02
1.110000000000000000e+02
1.210000000000000000e+02
1.070000000000000000e+02
1.180000000000000000e+02
