5.000000000000000000e+00
1.500000000000000000e+01
3.200000000000000000e+01
3.300000000000000000e+01
3.200000000000000000e+01
1.600000000000000000e+01
2.300000000000000000e+01
2.200000000000000000e+01
6.000000000000000000e+00
8.000000000000000000e+00
0.000000000000000000e+00
0.000000000000000000e+00
0.000000000000000000e+00
0.000000000000000000e+00
0.000000000000000000e+00
0.000000000000000000e+00
0.000000000000000000e+00
0.000000000000000000e+00
0.000000000000000000e+00
0.000000000000000000e+00
0.000000000000000000e+00
0.000000000000000000e+00
0.000000000000000000e+00
0.000000000000000000e+00
0.000000000000000000e+00
0.000000000000000000e+00
5.000000000000000000e+00
3.100000000000000000e+01
5.800000000000000000e+01
6.500000000000000000e+01
7.800000000000000000e+01
8.900000000000000000e+01
7.500000000000000000e+01
7.100000000000000000e+01
6.900000000000000000e+01
8.900000000000000000e+01
1.070000000000000000e+02
1.130000000000000000e+02
1.020000000000000000e+02
1.000000000000000000e+02
8.300000000000000000e+01
9.800000000000000000e+01
9.500000000000000000e+01
9.000000000000000000e+01
7.900000000000000000e+01
9.700000000000000000e+01
9.900000000000000000e+01
1.010000000000000000e+02
1.040000000000000000e+02
1.080000000000000000e+02
1.100000000000000000e+02
1.140000000000000000e+02
