6.000000000000000000e+00
4.000000000000000000e+01
6.400000000000000000e+01
5.400000000000000000e+01
3.500000000000000000e+01
1.300000000000000000e+01
1.200000000000000000e+01
1.300000000000000000e+01
1.000000000000000000e+01
3.000000000000000000e+00
0.000000000000000000e+00
0.000000000000000000e+00
0.000000000000000000e+00
0.000000000000000000e+00
0.000000000000000000e+00
0.000000000000000000e+00
0.000000000000000000e+00
0.000000000000000000e+00
0.000000000000000000e+00
0.000000000000000000e+00
0.000000000000000000e+00
0.000000000000000000e+00
0.000000000000000000e+00
0.000000000000000000e+00
0.000000000000000000e+00
0.000000000000000000e+00
5.000000000000000000e+00
2.300000000000000000e+01
3.700000000000000000e+01
4.100000000000000000e+01
6.000000000000000000e+01
8.500000000000000000e+01
9.800000000000000000e+01
9.400000000000000000e+01
1.030000000000000000e+02
8.700000000000000000e+01
9.800000000000000000e+01
1.020000000000000000e+02
9.100000000000000000e+01
8.600000000000000000e+01
8.500000000000000000e+01
8.700000000000000000e+01
9.800000000000000000e+01
1.050000000000000000e+02
1.200000000000000000e+02
1.010000000000000000e+02
9.900000000000000000e+01
1.100000000000000000e+02
9.400000000000000000e+01
9.300000000000000000e+01
9.500000000000000000e+01
9.500000000000000000e+01
