5.000000000000000000e+00
3.300000000000000000e+01
4.900000000000000000e+01
1.900000000000000000e+01
1.100000000000000000e+01
2.000000000000000000e+00
0.000000000000000000e+00
0.000000000000000000e+00
0.000000000000000000e+00
0.000000000000000000e+00
0.000000000000000000e+00
0.000000000000000000e+00
0.000000000000000000e+00
0.000000000000000000e+00
0.000000000000000000e+00
0.000000000000000000e+00
0.000000000000000000e+00
0.000000000000000000e+00
0.000000000000000000e+00
0.000000000000000000e+00
0.000000000000000000e+00
0.000000000000000000e+00
0.000000000000000000e+00
0.000000000000000000e+00
0.000000000000000000e+00
0.000000000000000000e+00
5.000000000000000000e+00
3.300000000000000000e+01
5.100000000000000000e+01
7.500000000000000000e+01
8.700000000000000000e+01
1.030000000000000000e+02
1.020000000000000000e+02
9.400000000000000000e+01
1.080000000000000000e+02
1.120000000000000000e+02
8.800000000000000000e+01
1.040000000000000000e+02
9.100000000000000000e+01
1.060000000000000000e+02
1.050000000000000000e+02
9.200000000000000000e+01
1.020000000000000000e+02
1.010000000000000000e+02
1.180000000000000000e+02
1.040000000000000000e+02
1.060000000000000000e+02
9.900000000000000000e+01
1.090000000000000000e+02
1.220000000000000000e+02
1.130000000000000000e+02
1.080000000000000000e+02
