5.000000000000000000e+00
2.200000000000000000e+01
1.800000000000000000e+01
1.900000000000000000e+01
9.000000000000000000e+00
2.000000000000000000e+00
3.000000000000000000e+00
0.000000000000000000e+00
0.000000000000000000e+00
0.000000000000000000e+00
0.000000000000000000e+00
0.000000000000000000e+00
0.000000000000000000e+00
0.000000000000000000e+00
0.000000000000000000e+00
0.000000000000000000e+00
0.000000000000000000e+00
0.000000000000000000e+00
0.000000000000000000e+00
0.000000000000000000e+00
0.000000000000000000e+00
0.000000000000000000e+00
0.000000000000000000e+00
0.000000000000000000e+00
0.000000000000000000e+00
0.000000000000000000e+00
5.000000000000000000e+00
4.900000000000000000e+01
7.200000000000000000e+01
7.500000000000000000e+01
9.100000000000000000e+01
8.300000000000000000e+01
9.200000000000000000e+01
1.230000000000000000e+02
1.060000000000000000e+02
1.140000000000000000e+02
1.020000000000000000e+02
1.020000000000000000e+02
1.020000000000000000e+02
1.010000000000000000e+02
1.130000000000000000e+02
9.400000000000000000e+01
9.300000000000000000e+01
9.900000000000000000e+01
9.200000000000000000e+01
9.400000000000000000e+01
9.900000000000000000e+01
9.800000000000000000e+01
8.300000000000000000e+01
1.090000000000000000e+02
1.050000000000000000e+02
9.900000000000000000e+01
