5.000000000000000000e+00
3.000000000000000000e+01
3.300000000000000000e+01
3.000000000000000000e+01
2.000000000000000000e+01
9.000000000000000000e+00
1.000000000000000000e+00
0.000000000000000000e+00
0.000000000000000000e+00
0.000000000000000000e+00
0.000000000000000000e+00
0.000000000000000000e+00
0.000000000000000000e+00
0.000000000000000000e+00
0.000000000000000000e+00
0.000000000000000000e+00
0.000000000000000000e+00
0.000000000000000000e+00
0.000000000000000000e+00
0.000000000000000000e+00
0.000000000000000000e+00
0.000000000000000000e+00
0.000000000000000000e+00
0.000000000000000000e+00
0.000000000000000000e+00
0.000000000000000000e+00
5.000000000000000000e+00
3.000000000000000000e+01
6.300000000000000000e+01
7.100000000000000000e+01
8.400000000000000000e+01
9.200000000000000000e+01
9.700000000000000000e+01
9.900000000000000000e+01
9.600000000000000000e+01
9.700000000000000000e+01
1.140000000000000000e+02
1.080000000000000000e+02
8.200000000000000000e+01
9.600000000000000000e+01
1.210000000000000000e+02
1.240000000000000000e+02
1.280000000000000000e+02
1.020000000000000000e+02
9.500000000000000000e+01
9.600000000000000000e+01
1.020000000000000000e+02
1.130000000000000000e+02
1.290000000000000000e+02
1.280000000000000000e+02
1.050000000000000000e+02
1.050000000000000000e+02
