5.000000000000000000e+00
2.300000000000000000e+01
3.100000000000000000e+01
1.600000000000000000e+01
4.000000000000000000e+00
0.000000000000000000e+00
0.000000000000000000e+00
0.000000000000000000e+00
0.000000000000000000e+00
0.000000000000000000e+00
0.000000000000000000e+00
0.000000000000000000e+00
0.000000000000000000e+00
0.000000000000000000e+00
0.000000000000000000e+00
0.000000000000000000e+00
0.000000000000000000e+00
0.000000000000000000e+00
0.000000000000000000e+00
0.000000000000000000e+00
0.000000000000000000e+00
0.000000000000000000e+00
0.000000000000000000e+00
0.000000000000000000e+00
0.000000000000000000e+00
0.000000000000000000e+00
5.000000000000000000e+00
1.800000000000000000e+01
5.200000000000000000e+01
7.300000000000000000e+01
9.400000000000000000e+01
9.100000000000000000e+01
1.040000000000000000e+02
1.100000000000000000e+02
1.010000000000000000e+02
1.100000000000000000e+02
1.030000000000000000e+02
1.030000000000000000e+02
7.700000000000000000e+01
1.020000000000000000e+02
7.900000000000000000e+01
9.200000000000000000e+01
8.800000000000000000e+01
1.020000000000000000e+02
8.900000000000000000e+01
8.200000000000000000e+01
1.080000000000000000e+02
1.130000000000000000e+02
9.400000000000000000e+01
1.100000000000000000e+02
1.100000000000000000e+02
9.900000000000000000e+01
