5.000000000000000000e+00
3.000000000000000000e+01
2.800000000000000000e+01
2.200000000000000000e+01
1.500000000000000000e+01
1.100000000000000000e+01
1.000000000000000000e+01
5.000000000000000000e+00
0.000000000000000000e+00
0.000000000000000000e+00
0.000000000000000000e+00
0.000000000000000000e+00
0.000000000000000000e+00
0.000000000000000000e+00
0.000000000000000000e+00
0.000000000000000000e+00
0.000000000000000000e+00
0.000000000000000000e+00
0.000000000000000000e+00
0.000000000000000000e+00
0.000000000000000000e+00
0.000000000000000000e+00
0.000000000000000000e+00
0.000000000000000000e+00
0.000000000000000000e+00
0.000000000000000000e+00
5.000000000000000000e+00
4.500000000000000000e+01
5.700000000000000000e+01
6.800000000000000000e+01
8.300000000000000000e+01
8.400000000000000000e+01
9.300000000000000000e+01
1.010000000000000000e+02
1.160000000000000000e+02
9.800000000000000000e+01
8.900000000000000000e+01
9.500000000000000000e+01
9.900000000000000000e+01
1.030000000000000000e+02
1.010000000000000000e+02
9.400000000000000000e+01
1.070000000000000000e+02
9.200000000000000000e+01
1.020000000000000000e+02
1.040000000000000000e+02
9.200000000000000000e+01
9.200000000000000000e+01
8.300000000000000000e+01
8.100000000000000000e+01
8.200000000000000000e+01
9.400000000000000000e+01
