5.000000000000000000e+00
2.500000000000000000e+01
1.500000000000000000e+01
0.000000000000000000e+00
0.000000000000000000e+00
0.000000000000000000e+00
0.000000000000000000e+00
0.000000000000000000e+00
0.000000000000000000e+00
0.000000000000000000e+00
0.000000000000000000e+00
0.000000000000000000e+00
0.000000000000000000e+00
0.000000000000000000e+00
0.000000000000000000e+00
0.000000000000000000e+00
0.000000000000000000e+00
0.000000000000000000e+00
0.000000000000000000e+00
0.000000000000000000e+00
0.000000000000000000e+00
0.000000000000000000e+00
0.000000000000000000e+00
0.000000000000000000e+00
0.000000000000000000e+00
0.000000000000000000e+00
5.000000000000000000e+00
4.800000000000000000e+01
6.900000000000000000e+01
7.900000000000000000e+01
9.800000000000000000e+01
1.060000000000000000e+02
9.800000000000000000e+01
9.100000000000000000e+01
8.000000000000000000e+01
9.600000000000000000e+01
1.140000000000000000e+02
9.600000000000000000e+01
1.130000000000000000e+02
1.090000000000000000e+02
1.090000000000000000e+02
1.000000000000000000e+02
9.700000000000000000e+01
9.000000000000000000e+01
9.800000000000000000e+01
1.080000000000000000e+02
1.140000000000000000e+02
1.090000000000000000e+02
9.300000000000000000e+01
9.800000000000000000e+01
8.200000000000000000e+01
8.700000000000000000e+01
