5.000000000000000000e+00
3.800000000000000000e+01
1.040000000000000000e+02
1.040000000000000000e+02
9.300000000000000000e+01
9.500000000000000000e+01
9.100000000000000000e+01
8.000000000000000000e+01
7.800000000000000000e+01
9.500000000000000000e+01
8.700000000000000000e+01
7.500000000000000000e+01
7.800000000000000000e+01
9.000000000000000000e+01
8.900000000000000000e+01
9.200000000000000000e+01
9.400000000000000000e+01
8.300000000000000000e+01
7.800000000000000000e+01
7.000000000000000000e+01
8.200000000000000000e+01
9.000000000000000000e+01
6.100000000000000000e+01
8.500000000000000000e+01
7.600000000000000000e+01
6.900000000000000000e+01
5.000000000000000000e+00
2.200000000000000000e+01
6.100000000000000000e+01
1.110000000000000000e+02
9.400000000000000000e+01
1.070000000000000000e+02
1.210000000000000000e+02
1.190000000000000000e+02
1.260000000000000000e+02
1.200000000000000000e+02
1.320000000000000000e+02
1.110000000000000000e+02
1.190000000000000000e+02
1.270000000000000000e+02
1.240000000000000000e+02
1.000000000000000000e+02
1.130000000000000000e+02
9.900000000000000000e+01
1.120000000000000000e+02
1.160000000000000000e+02
1.050000000000000000e+02
1.180000000000000000e+02
1.290000000000000000e+02
1.280000000000000000e+02
1.370000000000000000e+02
1.430000000000000000e+02
