5.000000000000000000e+00
2.700000000000000000e+01
4.600000000000000000e+01
3.300000000000000000e+01
1.200000000000000000e+01
3.000000000000000000e+00
0.000000000000000000e+00
0.000000000000000000e+00
0.000000000000000000e+00
0.000000000000000000e+00
0.000000000000000000e+00
0.000000000000000000e+00
0.000000000000000000e+00
0.000000000000000000e+00
0.000000000000000000e+00
0.000000000000000000e+00
0.000000000000000000e+00
0.000000000000000000e+00
0.000000000000000000e+00
0.000000000000000000e+00
0.000000000000000000e+00
0.000000000000000000e+00
0.000000000000000000e+00
0.000000000000000000e+00
0.000000000000000000e+00
0.000000000000000000e+00
5.000000000000000000e+00
2.700000000000000000e+01
6.100000000000000000e+01
7.600000000000000000e+01
6.800000000000000000e+01
7.900000000000000000e+01
1.040000000000000000e+02
1.060000000000000000e+02
1.080000000000000000e+02
8.100000000000000000e+01
8.600000000000000000e+01
9.000000000000000000e+01
9.000000000000000000e+01
1.050000000000000000e+02
1.060000000000000000e+02
1.100000000000000000e+02
1.060000000000000000e+02
1.130000000000000000e+02
1.040000000000000000e+02
1.000000000000000000e+02
8.500000000000000000e+01
9.400000000000000000e+01
9.100000000000000000e+01
8.900000000000000000e+01
9.900000000000000000e+01
1.000000000000000000e+02
