5.000000000000000000e+00
2.200000000000000000e+01
7.200000000000000000e+01
8.500000000000000000e+01
6.200000000000000000e+01
7.900000000000000000e+01
7.100000000000000000e+01
8.500000000000000000e+01
1.040000000000000000e+02
7.600000000000000000e+01
6.400000000000000000e+01
6.700000000000000000e+01
7.300000000000000000e+01
9.800000000000000000e+01
7.300000000000000000e+01
8.700000000000000000e+01
8.900000000000000000e+01
8.100000000000000000e+01
6.400000000000000000e+01
8.600000000000000000e+01
8.100000000000000000e+01
7.400000000000000000e+01
8.600000000000000000e+01
7.800000000000000000e+01
9.100000000000000000e+01
8.700000000000000000e+01
6.000000000000000000e+00
5.100000000000000000e+01
1.120000000000000000e+02
1.230000000000000000e+02
1.370000000000000000e+02
1.370000000000000000e+02
1.230000000000000000e+02
9.300000000000000000e+01
1.140000000000000000e+02
1.210000000000000000e+02
1.250000000000000000e+02
1.190000000000000000e+02
1.370000000000000000e+02
1.200000000000000000e+02
1.340000000000000000e+02
1.250000000000000000e+02
1.260000000000000000e+02
1.270000000000000000e+02
1.350000000000000000e+02
1.330000000000000000e+02
1.190000000000000000e+02
1.050000000000000000e+02
1.080000000000000000e+02
1.010000000000000000e+02
1.090000000000000000e+02
9.500000000000000000e+01
