6.000000000000000000e+00
2.800000000000000000e+01
2.600000000000000000e+01
2.500000000000000000e+01
2.800000000000000000e+01
1.100000000000000000e+01
7.000000000000000000e+00
3.000000000000000000e+00
0.000000000000000000e+00
0.000000000000000000e+00
0.000000000000000000e+00
0.000000000000000000e+00
0.000000000000000000e+00
0.000000000000000000e+00
0.000000000000000000e+00
0.000000000000000000e+00
0.000000000000000000e+00
0.000000000000000000e+00
0.000000000000000000e+00
0.000000000000000000e+00
0.000000000000000000e+00
0.000000000000000000e+00
0.000000000000000000e+00
0.000000000000000000e+00
0.000000000000000000e+00
0.000000000000000000e+00
6.000000000000000000e+00
4.500000000000000000e+01
5.300000000000000000e+01
5.900000000000000000e+01
8.300000000000000000e+01
7.800000000000000000e+01
9.700000000000000000e+01
1.020000000000000000e+02
1.070000000000000000e+02
1.030000000000000000e+02
9.900000000000000000e+01
9.900000000000000000e+01
8.900000000000000000e+01
1.060000000000000000e+02
1.270000000000000000e+02
1.050000000000000000e+02
1.040000000000000000e+02
1.280000000000000000e+02
1.120000000000000000e+02
9.900000000000000000e+01
1.100000000000000000e+02
1.090000000000000000e+02
9.300000000000000000e+01
9.800000000000000000e+01
1.060000000000000000e+02
1.020000000000000000e+02
